^D:\VISUAL STUDIO 2013\QUAN_LY_VT_DETAI2\QUAN_LY_VT_DETAI2\MAIN.CPP
D:\VISUAL STUDIO 2013\QUAN_LY_VT_DETAI2\QUAN_LY_VT_DETAI2\DEBUG\VC120.PDB
D:\VISUAL STUDIO 2013\QUAN_LY_VT_DETAI2\QUAN_LY_VT_DETAI2\DEBUG\VC120.IDB
D:\VISUAL STUDIO 2013\QUAN_LY_VT_DETAI2\QUAN_LY_VT_DETAI2\DEBUG\MAIN.OBJ
